{
  "project_info": {
    "project_number": "1070281245079",
    "firebase_url": "https://myschool-eecab.firebaseio.com",
    "project_id": "myschool-eecab",
    "storage_bucket": "myschool-eecab.appspot.com"
  },
  "client": [
    {
      "client_info": {
        "mobilesdk_app_id": "1:1070281245079:android:c2f1dcd287fd22e27e44d2",
        "android_client_info": {
          "package_name": "com.zeroerp.apsbpl"
        }
      },
      "oauth_client": [
        {
          "client_id": "1070281245079-94hmrd2auaefgqq2p9mh7bgtuibh6ko9.apps.googleusercontent.com",
          "client_type": 1,
          "android_info": {
            "package_name": "com.zeroerp.apsbpl",
            "certificate_hash": "88af75b54f971e76ebed815c706e72f7fe3feb36"
          }
        },
        {
          "client_id": "1070281245079-m8ac43768o89vg1ijnufsrh11orpkr14.apps.googleusercontent.com",
          "client_type": 1,
          "android_info": {
            "package_name": "com.zeroerp.apsbpl",
            "certificate_hash": "1a1072b69eceb22d39ce905051b633f33ced9b5e"
          }
        },
        {
          "client_id": "1070281245079-ocqqrb4bg6upse39ospuvka7rk6ilgfn.apps.googleusercontent.com",
          "client_type": 1,
          "android_info": {
            "package_name": "com.zeroerp.apsbpl",
            "certificate_hash": "a22c859a7f8c2bc2afc29acf0801fc247680b3e7"
          }
        },
        {
          "client_id": "1070281245079-65gkae26vrpl2ea16u47sb479no0q8ca.apps.googleusercontent.com",
          "client_type": 3
        }
      ],
      "api_key": [
        {
          "current_key": "AIzaSyDnJVgiy92MXgZ_2TdBhAzWYU9rGLYXHh8"
        },
        {
          "current_key": "AIzaSyChABeGvujONvQC4AQA1bMmBl2T04GmtWw"
        }
      ],
      "services": {
        "appinvite_service": {
          "other_platform_oauth_client": [
            {
              "client_id": "1070281245079-65gkae26vrpl2ea16u47sb479no0q8ca.apps.googleusercontent.com",
              "client_type": 3
            },
            {
              "client_id": "1070281245079-9dcj3voaqvkv7bs6d9raaj2e196uguk7.apps.googleusercontent.com",
              "client_type": 2,
              "ios_info": {
                "bundle_id": "in.junctiontech.school",
                "app_store_id": "1261309387"
              }
            }
          ]
        }
      }
    },
    {
      "client_info": {
        "mobilesdk_app_id": "1:1070281245079:android:95bb264ba71fb15c7e44d2",
        "android_client_info": {
          "package_name": "com.zeroerp.itutor"
        }
      },
      "oauth_client": [
        {
          "client_id": "1070281245079-4rt6l6rs5em16a522ihifbvv8neufeib.apps.googleusercontent.com",
          "client_type": 1,
          "android_info": {
            "package_name": "com.zeroerp.itutor",
            "certificate_hash": "1a1072b69eceb22d39ce905051b633f33ced9b5e"
          }
        },
        {
          "client_id": "1070281245079-k4n38rk1mgc7pp2sn00tpfga2uesffa1.apps.googleusercontent.com",
          "client_type": 1,
          "android_info": {
            "package_name": "com.zeroerp.itutor",
            "certificate_hash": "02b9a89a8205f7c82489b105be34b1ba138f2a91"
          }
        },
        {
          "client_id": "1070281245079-mo0gac81tefclh4g18hseshi64roqjsm.apps.googleusercontent.com",
          "client_type": 1,
          "android_info": {
            "package_name": "com.zeroerp.itutor",
            "certificate_hash": "4d5f32fd8b1e038d15746d744ea6b311fbcb5905"
          }
        },
        {
          "client_id": "1070281245079-65gkae26vrpl2ea16u47sb479no0q8ca.apps.googleusercontent.com",
          "client_type": 3
        }
      ],
      "api_key": [
        {
          "current_key": "AIzaSyDnJVgiy92MXgZ_2TdBhAzWYU9rGLYXHh8"
        },
        {
          "current_key": "AIzaSyChABeGvujONvQC4AQA1bMmBl2T04GmtWw"
        }
      ],
      "services": {
        "appinvite_service": {
          "other_platform_oauth_client": [
            {
              "client_id": "1070281245079-65gkae26vrpl2ea16u47sb479no0q8ca.apps.googleusercontent.com",
              "client_type": 3
            },
            {
              "client_id": "1070281245079-9dcj3voaqvkv7bs6d9raaj2e196uguk7.apps.googleusercontent.com",
              "client_type": 2,
              "ios_info": {
                "bundle_id": "in.junctiontech.school",
                "app_store_id": "1261309387"
              }
            }
          ]
        }
      }
    },
    {
      "client_info": {
        "mobilesdk_app_id": "1:1070281245079:android:44e3770b44fd07bd7e44d2",
        "android_client_info": {
          "package_name": "com.zeroerp.school2"
        }
      },
      "oauth_client": [
        {
          "client_id": "1070281245079-65gkae26vrpl2ea16u47sb479no0q8ca.apps.googleusercontent.com",
          "client_type": 3
        }
      ],
      "api_key": [
        {
          "current_key": "AIzaSyDnJVgiy92MXgZ_2TdBhAzWYU9rGLYXHh8"
        },
        {
          "current_key": "AIzaSyChABeGvujONvQC4AQA1bMmBl2T04GmtWw"
        }
      ],
      "services": {
        "appinvite_service": {
          "other_platform_oauth_client": [
            {
              "client_id": "1070281245079-65gkae26vrpl2ea16u47sb479no0q8ca.apps.googleusercontent.com",
              "client_type": 3
            },
            {
              "client_id": "1070281245079-9dcj3voaqvkv7bs6d9raaj2e196uguk7.apps.googleusercontent.com",
              "client_type": 2,
              "ios_info": {
                "bundle_id": "in.junctiontech.school",
                "app_store_id": "1261309387"
              }
            }
          ]
        }
      }
    },
    {
      "client_info": {
        "mobilesdk_app_id": "1:1070281245079:android:83794f0c761ec8f87e44d2",
        "android_client_info": {
          "package_name": "com.zeroerp.school3"
        }
      },
      "oauth_client": [
        {
          "client_id": "1070281245079-65gkae26vrpl2ea16u47sb479no0q8ca.apps.googleusercontent.com",
          "client_type": 3
        }
      ],
      "api_key": [
        {
          "current_key": "AIzaSyDnJVgiy92MXgZ_2TdBhAzWYU9rGLYXHh8"
        },
        {
          "current_key": "AIzaSyChABeGvujONvQC4AQA1bMmBl2T04GmtWw"
        }
      ],
      "services": {
        "appinvite_service": {
          "other_platform_oauth_client": [
            {
              "client_id": "1070281245079-65gkae26vrpl2ea16u47sb479no0q8ca.apps.googleusercontent.com",
              "client_type": 3
            },
            {
              "client_id": "1070281245079-9dcj3voaqvkv7bs6d9raaj2e196uguk7.apps.googleusercontent.com",
              "client_type": 2,
              "ios_info": {
                "bundle_id": "in.junctiontech.school",
                "app_store_id": "1261309387"
              }
            }
          ]
        }
      }
    },
    {
      "client_info": {
        "mobilesdk_app_id": "1:1070281245079:android:8a70be9c334ddac2",
        "android_client_info": {
          "package_name": "com.zeroerp.uppre"
        }
      },
      "oauth_client": [
        {
          "client_id": "1070281245079-09rot7ctroilt1i3s8lem4arbktkk7tt.apps.googleusercontent.com",
          "client_type": 1,
          "android_info": {
            "package_name": "com.zeroerp.uppre",
            "certificate_hash": "ef12e0d0d6c9139f1d6ad75cc92fb440289cba9a"
          }
        },
        {
          "client_id": "1070281245079-cvvagt6mv6gv9fmbp4355qvukv98423u.apps.googleusercontent.com",
          "client_type": 1,
          "android_info": {
            "package_name": "com.zeroerp.uppre",
            "certificate_hash": "1a1072b69eceb22d39ce905051b633f33ced9b5e"
          }
        },
        {
          "client_id": "1070281245079-nelvuojvlku1qljnk0krojse8153jq5h.apps.googleusercontent.com",
          "client_type": 1,
          "android_info": {
            "package_name": "com.zeroerp.uppre",
            "certificate_hash": "a7f65700bf61aafc17b70dc88b1acd3d44d8756b"
          }
        },
        {
          "client_id": "1070281245079-65gkae26vrpl2ea16u47sb479no0q8ca.apps.googleusercontent.com",
          "client_type": 3
        }
      ],
      "api_key": [
        {
          "current_key": "AIzaSyDnJVgiy92MXgZ_2TdBhAzWYU9rGLYXHh8"
        },
        {
          "current_key": "AIzaSyChABeGvujONvQC4AQA1bMmBl2T04GmtWw"
        }
      ],
      "services": {
        "appinvite_service": {
          "other_platform_oauth_client": [
            {
              "client_id": "1070281245079-65gkae26vrpl2ea16u47sb479no0q8ca.apps.googleusercontent.com",
              "client_type": 3
            },
            {
              "client_id": "1070281245079-9dcj3voaqvkv7bs6d9raaj2e196uguk7.apps.googleusercontent.com",
              "client_type": 2,
              "ios_info": {
                "bundle_id": "in.junctiontech.school",
                "app_store_id": "1261309387"
              }
            }
          ]
        }
      }
    },
    {
      "client_info": {
        "mobilesdk_app_id": "1:1070281245079:android:1e5ffc3a3379f707",
        "android_client_info": {
          "package_name": "com.zeroerp.uppublic"
        }
      },
      "oauth_client": [
        {
          "client_id": "1070281245079-3utkgdu4rqdm173jsd108ota5prc0ekn.apps.googleusercontent.com",
          "client_type": 1,
          "android_info": {
            "package_name": "com.zeroerp.uppublic",
            "certificate_hash": "79e32246778f37f2c2302949a15d20a67fc7098e"
          }
        },
        {
          "client_id": "1070281245079-bdkmg773t75qfg6pck1ainblbrqir880.apps.googleusercontent.com",
          "client_type": 1,
          "android_info": {
            "package_name": "com.zeroerp.uppublic",
            "certificate_hash": "1a1072b69eceb22d39ce905051b633f33ced9b5e"
          }
        },
        {
          "client_id": "1070281245079-cvmuldp2ir0ph31ij28mfv8jbr92oqjq.apps.googleusercontent.com",
          "client_type": 1,
          "android_info": {
            "package_name": "com.zeroerp.uppublic",
            "certificate_hash": "4068a48b35d3664257da55d03c44d7c3205f3b44"
          }
        },
        {
          "client_id": "1070281245079-65gkae26vrpl2ea16u47sb479no0q8ca.apps.googleusercontent.com",
          "client_type": 3
        }
      ],
      "api_key": [
        {
          "current_key": "AIzaSyDnJVgiy92MXgZ_2TdBhAzWYU9rGLYXHh8"
        },
        {
          "current_key": "AIzaSyChABeGvujONvQC4AQA1bMmBl2T04GmtWw"
        }
      ],
      "services": {
        "appinvite_service": {
          "other_platform_oauth_client": [
            {
              "client_id": "1070281245079-65gkae26vrpl2ea16u47sb479no0q8ca.apps.googleusercontent.com",
              "client_type": 3
            },
            {
              "client_id": "1070281245079-9dcj3voaqvkv7bs6d9raaj2e196uguk7.apps.googleusercontent.com",
              "client_type": 2,
              "ios_info": {
                "bundle_id": "in.junctiontech.school",
                "app_store_id": "1261309387"
              }
            }
          ]
        }
      }
    },
    {
      "client_info": {
        "mobilesdk_app_id": "1:1070281245079:android:9fcefe654463fcdc",
        "android_client_info": {
          "package_name": "in.junctiontech.school"
        }
      },
      "oauth_client": [
        {
          "client_id": "1070281245079-eolbvaen1vs1u8akgka16kb81c7qeel1.apps.googleusercontent.com",
          "client_type": 1,
          "android_info": {
            "package_name": "in.junctiontech.school",
            "certificate_hash": "1a1072b69eceb22d39ce905051b633f33ced9b5e"
          }
        },
        {
          "client_id": "1070281245079-65gkae26vrpl2ea16u47sb479no0q8ca.apps.googleusercontent.com",
          "client_type": 3
        }
      ],
      "api_key": [
        {
          "current_key": "AIzaSyDnJVgiy92MXgZ_2TdBhAzWYU9rGLYXHh8"
        },
        {
          "current_key": "AIzaSyChABeGvujONvQC4AQA1bMmBl2T04GmtWw"
        }
      ],
      "services": {
        "appinvite_service": {
          "other_platform_oauth_client": [
            {
              "client_id": "1070281245079-65gkae26vrpl2ea16u47sb479no0q8ca.apps.googleusercontent.com",
              "client_type": 3
            },
            {
              "client_id": "1070281245079-9dcj3voaqvkv7bs6d9raaj2e196uguk7.apps.googleusercontent.com",
              "client_type": 2,
              "ios_info": {
                "bundle_id": "in.junctiontech.school",
                "app_store_id": "1261309387"
              }
            }
          ]
        }
      },
      "admob_app_id": "ca-app-pub-1890254643259173~1467484848"
    }
  ],
  "configuration_version": "1"
}